<?xml version="1.0" encoding="utf-8"?>
<!-- Generator: Adobe Illustrator 17.1.0, SVG Export Plug-In . SVG Version: 6.00 Build 0)  -->
<!DOCTYPE svg PUBLIC "-//W3C//DTD SVG 1.1//EN" "http://www.w3.org/Graphics/SVG/1.1/DTD/svg11.dtd">
<svg version="1.1" id="Layer_1" xmlns="http://www.w3.org/2000/svg" xmlns:xlink="http://www.w3.org/1999/xlink" x="0px" y="0px"
	 viewBox="0 0 360 360" enable-background="new 0 0 360 360" xml:space="preserve">
<g id="Ferry_wheel">
	<g id="Stand">
		<circle fill="#CC9966" cx="178.6" cy="153.2" r="14.2"/>
		<line fill="none" stroke="#CC9966" stroke-width="11" stroke-miterlimit="10" x1="178.6" y1="153.2" x2="88.9" y2="342"/>
		<line fill="none" stroke="#CC9966" stroke-width="10" stroke-miterlimit="10" x1="179.4" y1="153.2" x2="269.1" y2="342"/>
		<circle fill="#996633" cx="178.6" cy="153.2" r="5.2"/>
	</g>
	<g id="Fence">
		<line fill="none" stroke="#FFCC33" stroke-width="3" stroke-miterlimit="10" x1="42.2" y1="342" x2="325.4" y2="342"/>
		<line fill="none" stroke="#FFCC33" stroke-width="3" stroke-miterlimit="10" x1="42.2" y1="316.8" x2="142.9" y2="316.8"/>
		<line fill="none" stroke="#FFCC33" stroke-width="3" stroke-miterlimit="10" x1="212.2" y1="316.8" x2="325.4" y2="316.8"/>
		<line fill="none" stroke="#FFCC33" stroke-width="3" stroke-miterlimit="10" x1="54.3" y1="316.8" x2="54.3" y2="342"/>
		<line fill="none" stroke="#FFCC33" stroke-width="3" stroke-miterlimit="10" x1="72.6" y1="316.8" x2="72.6" y2="342"/>
		<line fill="none" stroke="#FFCC33" stroke-width="3" stroke-miterlimit="10" x1="92.6" y1="316.8" x2="92.6" y2="342"/>
		<line fill="none" stroke="#FFCC33" stroke-width="3" stroke-miterlimit="10" x1="112.5" y1="316.8" x2="112.5" y2="342"/>
		<line fill="none" stroke="#FFCC33" stroke-width="3" stroke-miterlimit="10" x1="133.7" y1="316.8" x2="133.7" y2="342"/>
		<line fill="none" stroke="#FFCC33" stroke-width="3" stroke-miterlimit="10" x1="218.4" y1="316.8" x2="218.4" y2="342"/>
		<line fill="none" stroke="#FFCC33" stroke-width="3" stroke-miterlimit="10" x1="236.3" y1="316.8" x2="236.3" y2="342"/>
		<line fill="none" stroke="#FFCC33" stroke-width="3" stroke-miterlimit="10" x1="257.1" y1="316.8" x2="257.1" y2="342"/>
		<line fill="none" stroke="#FFCC33" stroke-width="3" stroke-miterlimit="10" x1="277.2" y1="316.8" x2="277.2" y2="342"/>
		<line fill="none" stroke="#FFCC33" stroke-width="3" stroke-miterlimit="10" x1="298.2" y1="316.8" x2="298.2" y2="342"/>
		<line fill="none" stroke="#FFCC33" stroke-width="3" stroke-miterlimit="10" x1="316" y1="316.8" x2="316" y2="342"/>
	</g>
	<g id="Rotation">
		<g id="Wheel">
			<circle fill="none" stroke="#CC9966" stroke-width="5" stroke-miterlimit="10" cx="178.6" cy="153.2" r="124.3"/>
			<circle fill="none" stroke="#CC9966" stroke-width="3" stroke-miterlimit="10" cx="178.6" cy="153.2" r="111.7"/>
		</g>
		<g id="Cabs">
			<path fill="#CC3333" d="M74,158.3H56.3V138h18.8v-0.1c0-3.1-2.1-5.6-4.7-5.6H38.1c-2.6,0-4.7,2.5-4.7,5.6v0.1h18.8v20.3H34.6
				c-1.4,0-2.3,1.4-1.7,2.7c8.3,17.1,34,17.6,42.7-0.1C76.2,159.7,75.3,158.3,74,158.3z"/>
			<path fill="#CC3333" d="M322.7,158.3h-17.7V138h18.8v-0.1c0-3.1-2.1-5.6-4.7-5.6h-32.2c-2.6,0-4.7,2.5-4.7,5.6v0.1h18.8v20.3
				h-17.7c-1.4,0-2.3,1.4-1.7,2.7c8.3,17.1,34,17.6,42.7-0.1C324.9,159.7,324,158.3,322.7,158.3z"/>
			<path fill="#CC3333" d="M196.8,35h-17.7V14.6h18.8v-0.1c0-3.1-2.1-5.6-4.7-5.6h-32.2c-2.6,0-4.7,2.5-4.7,5.6v0.1H175V35h-17.7
				c-1.4,0-2.3,1.4-1.7,2.7c8.3,17.1,34,17.6,42.7-0.1C199,36.4,198.1,35,196.8,35z"/>
			<path fill="#CC3333" d="M196.3,277.5h-17.7v-20.3h18.8v-0.1c0-3.1-2.1-5.6-4.7-5.6h-32.2c-2.6,0-4.7,2.5-4.7,5.6v0.1h18.8v20.3
				h-17.7c-1.4,0-2.3,1.4-1.7,2.7c8.3,17.1,34,17.6,42.7-0.1C198.5,278.9,197.6,277.5,196.3,277.5z"/>
			<path fill="#CC3333" d="M276.9,245.3h-17.7v-20.3h18.8v-0.1c0-3.1-2.1-5.6-4.7-5.6H241c-2.6,0-4.7,2.5-4.7,5.6v0.1h18.8v20.3
				h-17.7c-1.4,0-2.3,1.4-1.7,2.7c8.3,17.1,34,17.6,42.7-0.1C279,246.6,278.2,245.3,276.9,245.3z"/>
			<path fill="#CC3333" d="M117.1,245.3H99.4v-20.3h18.8v-0.1c0-3.1-2.1-5.6-4.7-5.6H81.3c-2.6,0-4.7,2.5-4.7,5.6v0.1h18.8v20.3
				H77.7c-1.4,0-2.3,1.4-1.7,2.7c8.3,17.1,34,17.6,42.7-0.1C119.3,246.6,118.4,245.3,117.1,245.3z"/>
			<path fill="#CC3333" d="M117.1,84H99.4V63.6h18.8v-0.1c0-3.1-2.1-5.6-4.7-5.6H81.3c-2.6,0-4.7,2.5-4.7,5.6v0.1h18.8V84H77.7
				c-1.4,0-2.3,1.4-1.7,2.7c8.3,17.1,34,17.6,42.7-0.1C119.3,85.3,118.4,84,117.1,84z"/>
			<path fill="#CC3333" d="M276.9,84h-17.7V63.6h18.8v-0.1c0-3.1-2.1-5.6-4.7-5.6H241c-2.6,0-4.7,2.5-4.7,5.6v0.1h18.8V84h-17.7
				c-1.4,0-2.3,1.4-1.7,2.7c8.3,17.1,34,17.6,42.7-0.1C279,85.3,278.2,84,276.9,84z"/>
		</g>
	</g>
</g>
</svg>
